…
``` r
fit <- global_economy %>% 
  mutate(pop = Population/1e6) %>% 
  model(ets = ETS(pop))
```

    ## Warning: 1 error encountered for ets
    ## [1] ETS does not support missing values.

``` r
fit  
```

    ## # A mable: 263 x 2
    ## # Key:     Country [263]
    ##    Country             ets         
    ##    <fct>               <model>     
    ##  1 Afghanistan         <ETS(A,A,N)>
    ##  2 Albania             <ETS(M,A,N)>
    ##  3 Algeria             <ETS(M,A,N)>
    ##  4 American Samoa      <ETS(M,A,N)>
    ##  5 Andorra             <ETS(M,A,N)>
    ##  6 Angola              <ETS(M,A,N)>
    ##  7 Antigua and Barbuda <ETS(M,A,N)>
    ##  8 Arab World          <ETS(M,A,N)>
    ##  9 Argentina           <ETS(A,A,N)>
    ## 10 Armenia             <ETS(M,A,N)>
    ## # … with 253 more rows

``` r
forecast(fit, h = 5)
```

    ## # A fable: 1,315 x 5 [1Y]
    ## # Key:     Country, .model [263]
    ##    Country     .model  Year   pop .distribution  
    ##    <fct>       <chr>  <dbl> <dbl> <dist>         
    ##  1 Afghanistan ets     2018 36.4  N(36, 0.012)   
    ##  2 Afghanistan ets     2019 37.3  N(37, 0.059)   
    ##  3 Afghanistan ets     2020 38.2  N(38, 0.164)   
    ##  4 Afghanistan ets     2021 39.0  N(39, 0.351)   
    ##  5 Afghanistan ets     2022 39.9  N(40, 0.644)   
    ##  6 Albania     ets     2018  2.87 N(2.9, 0.00012)
    ##  7 Albania     ets     2019  2.87 N(2.9, 0.00060)
    ##  8 Albania     ets     2020  2.87 N(2.9, 0.00169)
    ##  9 Albania     ets     2021  2.86 N(2.9, 0.00362)
    ## 10 Albania     ets     2022  2.86 N(2.9, 0.00664)
    ## # … with 1,305 more rows
…
fit$ets 
```

    ## [1] ETS(A,A,A)

Bootstrapped forecast distributions

``` r
sim <- fit %>% generate(h = "3 years", times = 5, bootstrap = TRUE)
sim
```

    ## # A tsibble: 180 x 4 [1M]
    ## # Key:       .model, .rep [5]
    ##    .model  .rep    Month  .sim
    ##    <chr>  <int>    <mth> <dbl>
    ##  1 ets        1 2019 Jan  620.
    ##  2 ets        1 2019 Feb  542.
    ##  3 ets        1 2019 Mar  604.
    ##  4 ets        1 2019 Apr  648.
    ##  5 ets        1 2019 May  659.
    ##  6 ets        1 2019 Jun  628.
    ##  7 ets        1 2019 Jul  686.
    ##  8 ets        1 2019 Aug  685.
    ##  9 ets        1 2019 Sep  656.
    ## 10 ets        1 2019 Oct  692.
    ## # … with 170 more rows
…
