…
<!-- end list -->

``` r
# table of people giving age and height
d <- tibble(age    = sample(c(20,30,40),   1000, replace = TRUE),
            height = sample(c(50,60),      1000, replace = TRUE),
            gender = sample(c("M","F"),    1000, replace = TRUE),
            group  = sample(LETTERS[1:10], 1000, replace = TRUE))

# simple random sample of 100 individuals (rows) from d
d[sample(1:1000, 100, replace = FALSE), ]
```

    ## # A tibble: 100 x 4
    ##      age height gender group
    ##    <dbl>  <dbl> <chr>  <chr>
    ##  1    20     50 F      J    
    ##  2    40     60 M      A    
    ##  3    40     60 M      C    
    ##  4    30     50 M      D    
    ##  5    30     50 M      B    
    ##  6    40     50 M      C    
    ##  7    40     60 M      H    
    ##  8    20     50 F      G    
    ##  9    20     50 F      C    
    ## 10    40     50 F      I    
    ## # … with 90 more rows

``` r
# stratified random sample: gender is the strata.
# take 50 random samples from each strata.
split(d, d$gender) %>% 
  lapply(., function(x) x[ sample(1:nrow(x), 50 , replace=FALSE) , ] )
```

    ## $F
    ## # A tibble: 50 x 4
    ##      age height gender group
    ##    <dbl>  <dbl> <chr>  <chr>
    ##  1    30     60 F      I    
    ##  2    20     50 F      I    
    ##  3    20     50 F      J    
    ##  4    30     50 F      I    
    ##  5    20     60 F      G    
    ##  6    30     60 F      F    
    ##  7    40     50 F      E    
    ##  8    30     50 F      F    
    ##  9    20     60 F      J    
    ## 10    40     50 F      J    
    ## # … with 40 more rows
    ## 
    ## $M
    ## # A tibble: 50 x 4
    ##      age height gender group
    ##    <dbl>  <dbl> <chr>  <chr>
    ##  1    20     60 M      I    
    ##  2    40     50 M      G    
    ##  3    30     60 M      D    
    ##  4    40     50 M      G    
    ##  5    40     50 M      I    
    ##  6    20     60 M      H    
    ##  7    30     50 M      B    
    ##  8    40     50 M      A    
    ##  9    20     60 M      F    
    ## 10    30     50 M      C    
    ## # … with 40 more rows

``` r
# cluster sample: groups A:E are the cluster. 
filter(d, group %in% LETTERS[1:5]) 
```

    ## # A tibble: 478 x 4
    ##      age height gender group
    ##    <dbl>  <dbl> <chr>  <chr>
    ##  1    20     50 F      A    
    ##  2    40     50 F      A    
    ##  3    30     60 M      B    
    ##  4    40     50 F      D    
    ##  5    30     50 M      D    
    ##  6    30     50 M      B    
    ##  7    20     50 F      B    
    ##  8    20     60 M      B    
    ##  9    30     60 M      D    
    ## 10    40     60 M      D    
    ## # … with 468 more rows
…
